{
  "project_info": {
    "project_number": "178163612438",
    "project_id": "birou-pro",
    "storage_bucket": "birou-pro.appspot.com"
  },
  "client": [
    {
      "client_info": {
        "mobilesdk_app_id": "1:178163612438:android:f5b5578914bda025912e37",
        "android_client_info": {
          "package_name": "com.bluepenlabs.birou"
        }
      },
      "oauth_client": [
        {
          "client_id": "178163612438-op56fjabgj5p68a7f3t3d064cgnh2pfo.apps.googleusercontent.com",
          "client_type": 1,
          "android_info": {
            "package_name": "com.bluepenlabs.birou",
            "certificate_hash": "15a78f909ef8316362f89678f5fa5a91690ae37d"
          }
        },
        {
          "client_id": "178163612438-5rfk39r6lg8hjoo7lefom90l4bvdi3vg.apps.googleusercontent.com",
          "client_type": 3
        }
      ],
      "api_key": [
        {
          "current_key": "AIzaSyDi2i38HUwYyB5-RYkYKF1pTDGtOYa3ohY"
        }
      ],
      "services": {
        "appinvite_service": {
          "other_platform_oauth_client": [
            {
              "client_id": "178163612438-5rfk39r6lg8hjoo7lefom90l4bvdi3vg.apps.googleusercontent.com",
              "client_type": 3
            }
          ]
        }
      }
    }
  ],
  "configuration_version": "1"
}